{
    "key": "group_54ecac8a554e6",
    "title": "Google Analytics",
    "fields": [
        {
            "key": "field_5b6df4a0352c1",
            "label": "Header Tracking Codes",
            "name": "header_tracking_codes",
            "type": "textarea",
            "instructions": "Loads after the opening body tag. Make sure the scripts are enclosed in <script> tags.",
            "required": 0,
            "conditional_logic": 0,
            "wrapper": {
                "width": "",
                "class": "",
                "id": ""
            },
            "default_value": "",
            "placeholder": "",
            "maxlength": "",
            "rows": "",
            "new_lines": ""
        },
        {
            "key": "field_54ecac97020d5",
            "label": "Footer Tracking Codes",
            "name": "footer_tracking_codes",
            "type": "textarea",
            "instructions": "Loads before the closing <body> tag, below all other scrips on the page. Make sure the scripts are enclosed in <script> tags.",
            "required": 0,
            "conditional_logic": 0,
            "wrapper": {
                "width": "",
                "class": "",
                "id": ""
            },
            "default_value": "",
            "placeholder": "",
            "maxlength": "",
            "rows": "",
            "new_lines": ""
        }
    ],
    "location": [
        [
            {
                "param": "options_page",
                "operator": "==",
                "value": "acf-options-google-analytics"
            }
        ]
    ],
    "menu_order": 52,
    "position": "normal",
    "style": "default",
    "label_placement": "top",
    "instruction_placement": "label",
    "hide_on_screen": "",
    "active": 1,
    "description": "",
    "modified": 1533933264
}