<?xml version="1.0" encoding="UTF-8"?>
<svg width="22px" height="22px" viewBox="0 0 22 22" version="1.1" xmlns="http://www.w3.org/2000/svg" xmlns:xlink="http://www.w3.org/1999/xlink">
  <title>Close</title>
  <g stroke="none" stroke-width="1" fill="none" fill-rule="evenodd">
    <path d="M11,8.90182073 L19.9018207,0 L22,2.09817927 L13.0981793,11 L22,19.9018207 L19.9018207,22 L11,13.0981793 L2.09817927,22 L0,19.9018207 L8.90182073,11 L0,2.09817927 L2.09817927,0 L11,8.90182073 Z" fill="currentColor" fill-rule="nonzero"></path>
  </g>
</svg>